{
  "courses": [
    {
      "id": "c001",
      "title": "Php",
      "logo": "https://picsum.photos/300",
      "duration": "60"
    },
    {
      "id": "c002",
      "title": "NodeJS for Beginners",
      "logo": "https://static-00.iconduck.com/assets.00/node-js-icon-454x512-nztofx17.png",
      "duration": 40
    }
  ]
}